<?xml version="1.0" encoding="utf-8"?>
<!-- Generator: Adobe Illustrator 17.0.1, SVG Export Plug-In . SVG Version: 6.00 Build 0)  -->
<!DOCTYPE svg PUBLIC "-//W3C//DTD SVG 1.1//EN" "http://www.w3.org/Graphics/SVG/1.1/DTD/svg11.dtd">
<svg version="1.1" xmlns="http://www.w3.org/2000/svg" xmlns:xlink="http://www.w3.org/1999/xlink" x="0px" y="0px" width="580px"
	 height="180px" viewBox="0 0 580 180" enable-background="new 0 0 580 180" xml:space="preserve">
<g id="sfondo">
	<linearGradient id="SVGID_1_" gradientUnits="userSpaceOnUse" x1="337.4522" y1="233.096" x2="314.2883" y2="162.8888">
		<stop  offset="0" style="stop-color:#FFD23F"/>
		<stop  offset="1" style="stop-color:#FFD23F"/>
	</linearGradient>
	<path fill="url(#SVGID_1_)" d="M577,143.79c0,19.446-15.764,35.21-35.21,35.21H39.333c-19.446,0-35.21-15.764-35.21-35.21V38.16
		c0-19.446,15.764-35.21,35.21-35.21H541.79c19.446,0,35.21,15.764,35.21,35.21V143.79z"/>
</g>
<g id="H">
	<g>
		<path opacity="0.5" enable-background="new    " d="M133.144,44.374c-0.969,0.265-1.721,0.86-2.153,1.766
			c-0.573,1.201-1.082,2.433-1.612,3.655c-0.627,1.445-1.248,2.892-1.871,4.338c-0.123,0.286-0.243,0.573-0.368,0.87
			c10.981,0,37.307,0.023,38.639,0.022c0.07,0,0.14-0.009,0.228-0.016c-0.022-0.077-0.031-0.132-0.053-0.183
			c-0.285-0.664-3.12-7.205-3.489-8.071c-0.208-0.487-0.432-0.965-0.801-1.356c-0.786-0.834-1.756-1.213-2.9-1.213
			c-8.082,0.005-16.164,0-24.246,0.01C134.059,44.198,133.586,44.254,133.144,44.374z"/>
		<path opacity="0.5" enable-background="new    " d="M164.255,46.986c-0.006-0.025-0.281-1.12-0.98-2.294
			c0.3,0.605,0.535,1.248,0.802,1.871C164.11,46.64,164.172,46.787,164.255,46.986z"/>
		<path opacity="0.5" enable-background="new    " d="M129.154,58.263c-1.915-0.004-3.461,1.536-3.461,3.448
			c0,1.906,1.555,3.453,3.465,3.447c1.893-0.006,3.439-1.557,3.44-3.451C132.598,59.812,131.052,58.267,129.154,58.263z"/>
		<path opacity="0.5" enable-background="new    " d="M123.249,76.073c-0.297-0.03-0.569-0.101-0.811-0.218l1.089,1.191
			c0.002-0.216,0.003-0.432,0.005-0.648C123.534,76.182,123.496,76.099,123.249,76.073z"/>
		<polygon opacity="0.5" enable-background="new    " points="152.891,36.563 152.891,36.563 152.891,36.563 		"/>
		<path opacity="0.5" enable-background="new    " d="M167.785,55.027c0.672,0.06,1.321,0.201,1.92,0.522
			c1.134,0.608,1.92,1.511,2.176,2.785c0.156,0.772,0.213,1.567,0.278,2.355c0.161,1.964,0.223,3.933,0.157,5.902
			c-0.051,1.509-0.162,3.017-0.272,4.524c-0.081,1.115-0.185,2.23-0.311,3.341c-0.071,0.632-0.432,1.104-1.004,1.377
			c-0.266,0.127-0.568,0.203-0.862,0.241c-0.208,0.027-0.25,0.095-0.25,0.284c0.006,1.528,0.006,3.057,0.003,4.585
			c-0.002,0.797-0.336,1.426-0.995,1.873c-0.374,0.253-0.8,0.361-1.249,0.362c-1.087,0.003-2.174,0.011-3.261-0.003
			c-1.306-0.017-2.233-0.971-2.234-2.273c0-1.496,0-2.991,0-4.487c0-0.096,0-0.193,0-0.306c-2.863,0-18.452-0.02-22.546-0.02
			c-2.55,0-5.099,0-7.649,0c-0.122,0-0.244,0-0.411,0c0,0.127,0,0.223,0,0.319c0,1.487-0.001,2.975,0,4.462
			c0.001,0.92-0.408,1.602-1.195,2.068c-0.329,0.195-0.695,0.234-1.061,0.238c-1.087,0.01-2.174,0.017-3.261,0.001
			c-0.16-0.002-0.314-0.019-0.461-0.047l54.539,45.524l-0.005-63.278L164.257,46.99c0.735,1.757,3.178,7.664,3.282,7.863
			C167.581,54.934,167.696,55.019,167.785,55.027z"/>
		<path opacity="0.5" enable-background="new    " d="M155.764,41.338c0.164,0.461,0.402,0.563,0.847,0.542
			c0.807-0.038,1.619-0.047,2.426-0.01c0.302,0.014,0.592,0.05,0.871,0.106c-0.384-0.09-0.798-0.135-1.245-0.119l-4.28-3.926
			c0.05,0.1,0.096,0.202,0.138,0.31C154.921,39.279,155.391,40.291,155.764,41.338z"/>
		<path opacity="0.5" enable-background="new    " d="M153.291,68.928c-4.37,0.015-8.741,0.009-13.112,0.009
			c-0.637,0-0.978,0.334-0.984,0.973c-0.005,0.629,0.016,1.259-0.006,1.887c-0.022,0.617,0.473,0.981,0.995,0.976
			c2.181-0.022,4.362-0.009,6.543-0.009c2.198,0,4.395-0.012,6.592,0.009c0.514,0.005,0.991-0.386,0.973-0.98
			c-0.019-0.62-0.021-1.242,0.001-1.862C154.316,69.306,153.823,68.926,153.291,68.928z"/>
		<path opacity="0.5" enable-background="new    " d="M160.884,61.705c-0.003,1.944,1.538,3.45,3.465,3.451
			c1.933,0,3.468-1.606,3.425-3.453c0.041-1.853-1.525-3.453-3.442-3.442C162.441,58.272,160.887,59.746,160.884,61.705z"/>
		<polygon fill="#FFFFFF" points="145.408,40.725 146.457,40.725 145.938,38.876 		"/>
		<path fill="#FFFFFF" d="M125.759,83.177c1.087,0.016,2.174,0.009,3.261-0.001c0.366-0.003,0.732-0.043,1.061-0.238
			c0.787-0.466,1.195-1.148,1.195-2.068c-0.001-1.487,0-2.975,0-4.462c0-0.096,0-0.192,0-0.319c0.166,0,0.289,0,0.411,0
			c2.55,0,5.099,0,7.649,0c4.094,0,19.683,0.02,22.546,0.02c0,0.113,0,0.209,0,0.306c0,1.496,0,2.991,0,4.487
			c0,1.302,0.928,2.256,2.234,2.273c1.087,0.014,2.174,0.007,3.261,0.003c0.449-0.001,0.876-0.109,1.249-0.362
			c0.659-0.446,0.993-1.076,0.995-1.873c0.004-1.528,0.004-3.057-0.003-4.585c-0.001-0.189,0.041-0.257,0.25-0.284
			c0.294-0.038,0.596-0.114,0.862-0.241c0.572-0.273,0.933-0.745,1.004-1.377c0.126-1.111,0.23-2.226,0.311-3.341
			c0.109-1.507,0.221-3.014,0.272-4.524c0.066-1.969,0.004-3.938-0.157-5.902c-0.065-0.788-0.122-1.583-0.278-2.355
			c-0.257-1.273-1.043-2.176-2.176-2.785c-0.599-0.321-1.247-0.462-1.92-0.522c-0.089-0.008-0.203-0.094-0.246-0.175
			c-0.104-0.199-2.548-6.106-3.282-7.863c-0.001-0.001-0.001-0.002-0.001-0.004c-0.083-0.2-0.145-0.346-0.178-0.423
			c-0.267-0.623-0.502-1.266-0.802-1.871c-0.074-0.149-0.15-0.296-0.233-0.439c-0.729-1.255-1.796-2.008-3.134-2.277
			c-0.279-0.056-0.569-0.092-0.871-0.106c-0.807-0.037-1.619-0.028-2.426,0.01c-0.446,0.021-0.683-0.081-0.847-0.542
			c-0.373-1.047-0.843-2.058-1.243-3.096c-0.041-0.108-0.088-0.21-0.138-0.31c-0.336-0.674-0.852-1.157-1.492-1.369l0,0
			c-0.238-0.079-0.492-0.121-0.76-0.122c-3.702-0.008-7.404-0.013-11.106,0.005c-0.914,0.004-1.684,0.407-2.103,1.233
			c-0.447,0.881-0.789,1.817-1.173,2.729c-0.204,0.484-0.401,0.971-0.601,1.454c-0.876,0-1.726-0.015-2.575,0.006
			c-0.462,0.012-0.931,0.046-1.382,0.138c-1.253,0.257-2.27,0.929-2.928,2.013c-0.477,0.785-0.808,1.661-1.176,2.509
			c-0.427,0.984-0.821,1.982-1.234,2.972c-0.425,1.02-0.854,2.038-1.281,3.057c-0.32,0.764-0.636,1.53-0.966,2.29
			c-0.033,0.075-0.142,0.155-0.223,0.164c-0.544,0.063-1.077,0.151-1.587,0.37c-1.44,0.62-2.344,1.693-2.598,3.231
			c-0.171,1.036-0.252,2.094-0.279,3.144c-0.053,2.074-0.07,4.15-0.043,6.224c0.014,1.092,0.15,2.182,0.237,3.273
			c0.072,0.895,0.147,1.79,0.235,2.684c0.03,0.306,0.055,0.628,0.167,0.909c0.193,0.485,0.514,0.813,0.924,1.01
			c0.242,0.116,0.515,0.188,0.811,0.218c0.247,0.025,0.285,0.109,0.283,0.326c-0.002,0.216-0.003,0.432-0.005,0.648
			c-0.01,1.288-0.018,2.575-0.013,3.863c0.004,1.15,0.721,2.014,1.783,2.22C125.445,83.158,125.599,83.175,125.759,83.177z
			 M129.158,65.158c-1.91,0.006-3.464-1.541-3.465-3.447c0-1.911,1.545-3.451,3.461-3.448c1.898,0.004,3.444,1.549,3.444,3.444
			C132.597,63.601,131.051,65.152,129.158,65.158z M148.03,61.605v-2.981h2.981v2.981h2.981v2.981h-2.981v-2.981H148.03v2.981
			h-2.982v-2.981h-2.981v2.981h-2.981v-2.981h2.981v-2.981h2.981v2.981H148.03z M154.294,71.792c0.018,0.594-0.459,0.985-0.973,0.98
			c-2.197-0.02-4.395-0.009-6.592-0.009c-2.181,0-4.362-0.013-6.543,0.009c-0.522,0.005-1.017-0.358-0.995-0.976
			c0.022-0.628,0.001-1.258,0.006-1.887c0.005-0.639,0.346-0.973,0.984-0.973c4.371,0,8.741,0.007,13.112-0.009
			c0.532-0.002,1.025,0.379,1.004,1.002C154.273,70.55,154.275,71.171,154.294,71.792z M167.773,61.703
			c0.043,1.847-1.492,3.453-3.425,3.453c-1.927,0-3.467-1.506-3.465-3.451c0.003-1.96,1.557-3.433,3.447-3.444
			C166.248,58.25,167.814,59.851,167.773,61.703z M158.764,44.188c1.143-0.001,2.113,0.379,2.9,1.213
			c0.369,0.391,0.593,0.869,0.801,1.356c0.369,0.866,3.204,7.407,3.489,8.071c0.022,0.05,0.031,0.106,0.053,0.183
			c-0.088,0.006-0.158,0.016-0.228,0.016c-1.332,0.001-27.658-0.022-38.639-0.022c0.125-0.297,0.245-0.584,0.368-0.87
			c0.623-1.446,1.244-2.894,1.871-4.338c0.53-1.221,1.039-2.454,1.612-3.655c0.432-0.906,1.185-1.501,2.153-1.766
			c0.442-0.121,0.915-0.176,1.374-0.177C142.6,44.188,150.682,44.193,158.764,44.188z M150.538,41.933v-3.471h0.45v3.471H150.538z
			 M148.052,38.462l0.726,1.325l0.726-1.325h0.498l-0.943,1.69l1.002,1.78h-0.546l-0.774-1.42l-0.774,1.42h-0.519l1.017-1.791
			l-0.954-1.68H148.052z M146.224,38.462l1.065,3.471h-0.487l-0.228-0.805h-1.277l-0.228,0.805h-0.461l1.06-3.471H146.224z
			 M142.091,38.462h2.464v0.408h-1.007v3.063h-0.45V38.87h-1.007V38.462z"/>
		<rect x="145.049" y="61.605" fill="#FFFFFF" width="2.982" height="2.981"/>
		<linearGradient id="SVGID_2_" gradientUnits="userSpaceOnUse" x1="145.0489" y1="63.0961" x2="148.0304" y2="63.0961">
			<stop  offset="0" style="stop-color:#FFD23F"/>
			<stop  offset="1" style="stop-color:#FFD23F"/>
		</linearGradient>
		<rect x="145.049" y="61.605" fill="url(#SVGID_2_)" width="2.982" height="2.981"/>
		<rect x="148.03" y="58.624" fill="#FFFFFF" width="2.981" height="2.981"/>
		<linearGradient id="SVGID_3_" gradientUnits="userSpaceOnUse" x1="148.0304" y1="60.1146" x2="151.0119" y2="60.1146">
			<stop  offset="0" style="stop-color:#FFD23F"/>
			<stop  offset="1" style="stop-color:#FFD23F"/>
		</linearGradient>
		<rect x="148.03" y="58.624" fill="url(#SVGID_3_)" width="2.981" height="2.981"/>
		<rect x="151.012" y="61.605" fill="#FFFFFF" width="2.981" height="2.981"/>
		<linearGradient id="SVGID_4_" gradientUnits="userSpaceOnUse" x1="151.0119" y1="63.0961" x2="153.9933" y2="63.0961">
			<stop  offset="0" style="stop-color:#FFD23F"/>
			<stop  offset="1" style="stop-color:#FFD23F"/>
		</linearGradient>
		<rect x="151.012" y="61.605" fill="url(#SVGID_4_)" width="2.981" height="2.981"/>
		<rect x="139.086" y="61.605" fill="#FFFFFF" width="2.981" height="2.981"/>
		<linearGradient id="SVGID_5_" gradientUnits="userSpaceOnUse" x1="139.0859" y1="63.0961" x2="142.0674" y2="63.0961">
			<stop  offset="0" style="stop-color:#FFD23F"/>
			<stop  offset="1" style="stop-color:#FFD23F"/>
		</linearGradient>
		<rect x="139.086" y="61.605" fill="url(#SVGID_5_)" width="2.981" height="2.981"/>
		<rect x="142.067" y="58.624" fill="#FFFFFF" width="2.981" height="2.981"/>
		<linearGradient id="SVGID_6_" gradientUnits="userSpaceOnUse" x1="142.0674" y1="60.1146" x2="145.0489" y2="60.1146">
			<stop  offset="0" style="stop-color:#FFD23F"/>
			<stop  offset="1" style="stop-color:#FFD23F"/>
		</linearGradient>
		<rect x="142.067" y="58.624" fill="url(#SVGID_6_)" width="2.981" height="2.981"/>
		<polygon fill="#FFFFFF" points="143.098,41.933 143.548,41.933 143.548,38.87 144.555,38.87 144.555,38.462 142.091,38.462 
			142.091,38.87 143.098,38.87 		"/>
		<linearGradient id="SVGID_7_" gradientUnits="userSpaceOnUse" x1="142.0911" y1="40.1978" x2="144.5551" y2="40.1978">
			<stop  offset="0" style="stop-color:#FFD23F"/>
			<stop  offset="1" style="stop-color:#FFD23F"/>
		</linearGradient>
		<polygon fill="url(#SVGID_7_)" points="143.098,41.933 143.548,41.933 143.548,38.87 144.555,38.87 144.555,38.462 
			142.091,38.462 142.091,38.87 143.098,38.87 		"/>
		<path fill="#FFFFFF" d="M144.608,41.933h0.461l0.228-0.805h1.277l0.228,0.805h0.487l-1.065-3.471h-0.556L144.608,41.933z
			 M146.457,40.725h-1.049l0.53-1.849L146.457,40.725z"/>
		<linearGradient id="SVGID_8_" gradientUnits="userSpaceOnUse" x1="144.6082" y1="40.1978" x2="147.2894" y2="40.1978">
			<stop  offset="0" style="stop-color:#FFD23F"/>
			<stop  offset="1" style="stop-color:#FFD23F"/>
		</linearGradient>
		<path fill="url(#SVGID_8_)" d="M144.608,41.933h0.461l0.228-0.805h1.277l0.228,0.805h0.487l-1.065-3.471h-0.556L144.608,41.933z
			 M146.457,40.725h-1.049l0.53-1.849L146.457,40.725z"/>
		<polygon fill="#FFFFFF" points="148.466,40.142 147.448,41.933 147.968,41.933 148.741,40.513 149.515,41.933 150.061,41.933 
			149.059,40.153 150.002,38.462 149.504,38.462 148.778,39.787 148.052,38.462 147.512,38.462 		"/>
		<linearGradient id="SVGID_9_" gradientUnits="userSpaceOnUse" x1="147.4484" y1="40.1978" x2="150.0607" y2="40.1978">
			<stop  offset="0" style="stop-color:#FFD23F"/>
			<stop  offset="1" style="stop-color:#FFD23F"/>
		</linearGradient>
		<polygon fill="url(#SVGID_9_)" points="148.466,40.142 147.448,41.933 147.968,41.933 148.741,40.513 149.515,41.933 
			150.061,41.933 149.059,40.153 150.002,38.462 149.504,38.462 148.778,39.787 148.052,38.462 147.512,38.462 		"/>
		<rect x="150.538" y="38.462" fill="#FFFFFF" width="0.45" height="3.471"/>
		<linearGradient id="SVGID_10_" gradientUnits="userSpaceOnUse" x1="150.5376" y1="40.1978" x2="150.9881" y2="40.1978">
			<stop  offset="0" style="stop-color:#FFD23F"/>
			<stop  offset="1" style="stop-color:#FFD23F"/>
		</linearGradient>
		<rect x="150.538" y="38.462" fill="url(#SVGID_10_)" width="0.45" height="3.471"/>
	</g>
	<path fill="#1E8DA3" enable-background="new    " d="M75.445,93.558c-9.323-3.521-16.316-8.337-20.978-14.451
		c-4.662-6.109-6.992-13.101-6.992-20.978v-4.04c0-14.296,3.987-25.066,11.965-32.321c7.973-7.25,21.492-10.877,40.557-10.877
		c4.764,0,9.682,0.262,14.762,0.777c5.074,0.52,11.033,1.505,17.87,2.952l-0.622,22.376c-10.984-2.486-21.24-3.729-30.767-3.729
		c-10.984,0-18.336,1.505-22.066,4.506c-3.729,3.006-5.594,7.614-5.594,13.829v2.486c0,4.147,1.034,7.357,3.108,9.634
		c2.069,2.282,5.798,4.56,11.188,6.837l29.214,12.12c9.114,3.729,16.054,8.809,20.822,15.228c4.764,6.424,7.148,13.47,7.148,21.133
		v7.459c0,14.296-4.093,25.125-12.275,32.477c-8.187,7.352-22.119,11.033-41.8,11.033c-11.81,0-24.969-1.661-39.469-4.972
		l0.622-23.309c13.257,3.316,26.208,4.972,38.848,4.972c11.188,0,18.647-1.398,22.376-4.195c3.729-2.797,5.594-7.303,5.594-13.519
		v-4.351c0-4.764-1.039-8.702-3.108-11.81c-2.074-3.108-5.492-5.594-10.256-7.459L75.445,93.558z"/>
	<g>
		<path fill="#FFFFFF" d="M91.353,160.192c-10.938,0-24.228-1.579-39.639-4.715c-0.534-0.108-13.158-2.729-17.952-10.554
			l0.557-0.341c4.644,7.581,17.396,10.23,17.525,10.255c19.01,3.868,34.771,5.36,46.847,4.437
			c10.647-0.815,18.516-3.409,24.054-7.932c8.702-7.106,9.881-17.811,9.886-27.346c0.009-17.21-10.258-27.157-37.883-36.7
			l-0.577-0.199c-12.945-4.471-21.497-7.425-26.779-12.088c-5.313-4.691-7.204-11.113-6.526-22.169
			c0.555-9.04,1.755-18.375,9.632-24.459c4.88-3.769,11.76-5.903,21.031-6.523c10.378-0.694,23.994,0.598,40.468,3.839
			c0.077,0.015,0.129,0.038,0.163,0.053c0.022,0.01,0.041,0.017,0.146,0.016l0.012,0.653c-0.233,0.004-0.331-0.031-0.42-0.071
			c-0.019-0.009-0.02-0.009-0.026-0.01c-30.921-6.083-50.866-5.246-60.974,2.56c-7.66,5.916-8.834,15.091-9.379,23.982
			c-1.337,21.786,7.282,24.763,32.867,33.6l0.577,0.199c14.059,4.857,23.36,9.733,29.272,15.348
			c6.18,5.868,9.056,12.849,9.051,21.97c-0.005,9.688-1.213,20.572-10.126,27.851c-5.645,4.61-13.632,7.252-24.417,8.077
			C96.413,160.103,93.948,160.192,91.353,160.192z"/>
		<path fill="#FFFFFF" d="M55.501,94.904c-16.21,0-29.397,13.411-29.397,29.894c0,7.087,2.439,13.605,6.507,18.734
			c0.206-0.087,0.41-0.181,0.61-0.281c-4.038-5.037-6.464-11.462-6.464-18.453c0-16.124,12.895-29.241,28.745-29.241
			c15.85,0,28.744,13.118,28.744,29.241c0,5.996,0.677,6.999-2.379,11.644c0.165,0.143,0.426,0.139,0.584,0.297
			c3.163-4.767,2.448-5.771,2.448-11.941C84.898,108.314,71.711,94.904,55.501,94.904z"/>
		<path fill="#1E8DA3" enable-background="new    " d="M56.714,95.326c0.746,3.747-1.687,7.398-5.441,8.146
			c-3.747,0.746-7.393-1.696-8.138-5.442c-0.747-3.754,1.687-7.398,5.434-8.144C52.322,89.138,55.966,91.572,56.714,95.326
			L56.714,95.326z M56.714,95.326"/>
		<path fill="#1E8DA3" enable-background="new    " d="M40.151,142.161c0.747,3.754-1.694,7.4-5.441,8.146
			c-3.754,0.747-7.398-1.687-8.146-5.441c-0.746-3.747,1.688-7.391,5.442-8.138C35.754,135.982,39.405,138.415,40.151,142.161
			L40.151,142.161z M40.151,142.161"/>
		<path fill="#1E8DA3" enable-background="new    " d="M89.956,132.247c0.747,3.754-1.688,7.399-5.441,8.146
			c-3.752,0.747-7.398-1.687-8.146-5.441c-0.746-3.747,1.69-7.391,5.442-8.138C85.565,126.066,89.21,128.5,89.956,132.247
			L89.956,132.247z M89.956,132.247"/>
	</g>
</g>
<g id="haxi">
	<g enable-background="new    ">
		<path fill="#1E8DA3" d="M179.09,64.2c1.552-10.877,2.641-20.4,3.264-28.56c0.619-8.16,1.086-16.123,1.399-23.897h19.817
			c-0.156,5.909-0.43,12.28-0.816,19.118c-0.39,6.841-1.049,13.602-1.982,20.283l-0.932,6.761l-14.222,57.12l0.699,0.466
			l0.699-0.466c5.439-20.203,12.2-35.357,20.283-45.463c8.08-10.102,16.786-15.154,26.112-15.154c7.613,0,13.482,2.138,17.602,6.411
			c4.117,4.277,6.178,11.54,6.178,21.799c0,2.178-0.08,4.47-0.233,6.878c-0.156,2.411-0.466,5.012-0.932,7.81l-11.191,73.672
			h-19.817l11.657-74.139c0.31-2.175,0.543-4.116,0.699-5.828c0.153-1.708,0.233-3.34,0.233-4.896c0-4.973-0.856-8.429-2.565-10.375
			c-1.712-1.942-4.044-2.914-6.994-2.914c-4.044,0-8.24,2.138-12.59,6.411c-4.353,4.277-8.473,10.338-12.356,18.185
			c-3.887,7.85-7.424,17.409-10.608,28.676c-3.188,11.271-5.712,23.897-7.577,37.885l-0.933,6.994h-19.817L179.09,64.2z"/>
		<path fill="#1E8DA3" d="M290.063,94.741c2.175-13.675,6.681-23.817,13.522-30.425c6.838-6.604,14.921-9.909,24.247-9.909
			c5.439,0,10.528,1.282,15.271,3.847c4.739,2.565,8.976,6.102,12.706,10.608l1.632-11.657h18.652l-15.854,113.773h-18.884
			l2.098-15.154l9.559-29.143l-0.466-0.466l-0.7,0.233c-5.595,16.786-12.047,28.873-19.35,36.253
			c-7.308,7.384-15.155,11.074-23.548,11.074c-7.46,0-13.638-2.564-18.534-7.694c-4.896-5.129-7.344-12.666-7.344-22.614
			c0-1.709,0.077-3.457,0.233-5.246c0.153-1.785,0.386-3.613,0.7-5.479L290.063,94.741z M314.544,156.057
			c4.663,0,8.976-1.708,12.939-5.129c3.963-3.417,7.461-7.694,10.491-12.823c3.031-5.129,5.595-10.725,7.693-16.786
			c2.099-6.062,3.534-11.81,4.314-17.252l2.797-20.05c-3.111-3.883-6.608-6.954-10.491-9.209c-3.887-2.251-7.85-3.38-11.89-3.38
			c-5.129,0-9.482,1.905-13.056,5.712c-3.577,3.811-6.061,10.065-7.46,18.768l-5.596,34.272c-0.313,2.178-0.582,4.197-0.816,6.062
			c-0.233,1.865-0.35,3.577-0.35,5.129c0,5.442,1.009,9.249,3.031,11.424C308.168,154.972,310.966,156.057,314.544,156.057z"/>
		<path fill="#1E8DA3" d="M439.505,126.448l-0.699,0.467c-5.442,8.083-10.765,15.893-15.97,23.43
			c-5.209,7.541-10.065,14.418-14.571,20.633h-23.78l43.364-58.752l-25.179-55.021h21.915c3.107,6.841,6.022,13.522,8.743,20.05
			c2.718,6.528,5.479,13.289,8.276,20.283l0.467,0.466l0.699-0.466c4.816-6.681,9.442-13.325,13.872-19.933
			c4.43-6.604,8.896-13.406,13.405-20.4h23.547l-40.566,55.021l27.277,58.752h-21.449c-3.111-8.236-6.142-15.774-9.092-22.615
			c-2.954-6.837-6.219-13.988-9.792-21.449L439.505,126.448z"/>
		<path fill="#1E8DA3" d="M505.949,170.978l15.853-113.773h19.817l-15.854,113.773H505.949z M549.08,27.13
			c-0.932,6.528-5.442,9.792-13.522,9.792c-4.044,0-7.227-1.009-9.559-3.031c-2.331-2.018-3.264-4.739-2.798-8.16l0.932-6.761
			c0.933-6.681,5.439-10.025,13.522-10.025c4.197,0,7.42,1.013,9.675,3.031c2.251,2.022,3.147,4.819,2.681,8.393L549.08,27.13z"/>
	</g>
</g>
</svg>
